    1  ls -l
    2  exit
    3  git version
    4  git version
    5  git clone https://gitlab.com/MARS_Sunitha/myfirstdevopsprj.git
    6  ls -l
    7  ls -l | more
    8  ls -l | pg
    9  ls -l|pg
   10  ls -l | page
   11  page
   12  clear
   13  ls -l | pg
   14  ls -l | more
   15  ls -l | pg
   16  clear
   17  ls -l
   18  ls -l| more
   19  ls -l| pg
   20  ls -l
   21  cd
   22  pwd
   23  rm -fr .git
   24  ls -l
   25  git status
   26  git --work-tree
   27  git --git-dir = D:\Sonu\MARS Training\All_Code_Files
   28  git --git-dir = D:/Sonu/MARS Training/All_Code_Files
   29  git --git-dir = /Sonu/MARS Training/All_Code_Files
   30  git --git-dir = D:/Sonu/MARS_Training/All_Code_Files
   31  git --git-dir = "D:/Sonu/MARS_Training/All_Code_Files"
   32  cd d:/Sonu/MARS_Training
   33  ls
   34  cd All_Code_Files/
   35  ls
   36  cd git-demo/
   37  ls
   38  git status
   39  git version
   40  git push 
   41  git remote add origin https://gitlab.com/MARS_Sunitha/demoprj.git
   42  git push origin
   43  git pus --set-upstream master
   44  git push --set-upstream origin master
   45  clear
   46  git push --set-upstream origin master
   47  git push --set-upstream origin master
   48  git push --set-upstream origin master
   49  git push --set-upstream origin master
   50  git push --set-upstream origin master
   51  git push --set-upstream origin master
   52  git status
   53  git pull
   54  clear
   55  git status
   56  ls
   57  cat docker.txt 
   58  git checkout child_branch
   59  git status
   60  ls
   61  cat docker.txt 
   62  git checkout master
   63  git checkout -b abc
   64  ls
   65  echo " hello branch mapping " >> docker.txt 
   66  cat docker.txt 
   67  git add docker.txt
   68  git commit -m "updating docker in abc branch" docker.txt 
   69  git status
   70  clear
   71  git status
   72* 
   73  git branch -a
   74  git --help
   75  clear
   76  git push --help
   77  git status
   78  git branch -a
   79  git push -u --set-upstream origin pqr
   80  git push https://gitlab.com/MARS_Sunitha/demoprj.git <abc>:<pqr>
   81  git push https://gitlab.com/MARS_Sunitha/demoprj.git abc:pqr
   82  history
   83  history > commands_issued.txt
   84  cat commands_issued.txt 
   85  clear
   86  git add commands_issued.txt
   87  git status
   88  git commit -m "commands issued in git bash prompt saved as text file" commands_issued.txt 
   89  git checkout master
   90  git branch -a
   91  git push origin
   92  ls -l
   93  cd ..
   94  ls 
   95  cd git-demo/
   96  ls
   97  ls
   98  clear
   99  git branch -a
  100  history
  101  history > commands_issued.txt
    1  ls -l
    2  exit
    3  git version
    4  git version
    5  git clone https://gitlab.com/MARS_Sunitha/myfirstdevopsprj.git
    6  ls -l
    7  ls -l | more
    8  ls -l | pg
    9  ls -l|pg
   10  ls -l | page
   11  page
   12  clear
   13  ls -l | pg
   14  ls -l | more
   15  ls -l | pg
   16  clear
   17  ls -l
   18  ls -l| more
   19  ls -l| pg
   20  ls -l
   21  cd
   22  pwd
   23  rm -fr .git
   24  ls -l
   25  git status
   26  git --work-tree
   27  git --git-dir = D:\Sonu\MARS Training\All_Code_Files
   28  git --git-dir = D:/Sonu/MARS Training/All_Code_Files
   29  git --git-dir = /Sonu/MARS Training/All_Code_Files
   30  git --git-dir = D:/Sonu/MARS_Training/All_Code_Files
   31  git --git-dir = "D:/Sonu/MARS_Training/All_Code_Files"
   32  cd d:/Sonu/MARS_Training
   33  ls
   34  cd All_Code_Files/
   35  ls
   36  cd git-demo/
   37  ls
   38  git status
   39  git version
   40  git push 
   41  git remote add origin https://gitlab.com/MARS_Sunitha/demoprj.git
   42  git push origin
   43  git pus --set-upstream master
   44  git push --set-upstream origin master
   45  clear
   46  git push --set-upstream origin master
   47  git push --set-upstream origin master
   48  git push --set-upstream origin master
   49  git push --set-upstream origin master
   50  git push --set-upstream origin master
   51  git push --set-upstream origin master
   52  git status
   53  git pull
   54  clear
   55  git status
   56  ls
   57  cat docker.txt 
   58  git checkout child_branch
   59  git status
   60  ls
   61  cat docker.txt 
   62  git checkout master
   63  git checkout -b abc
   64  ls
   65  echo " hello branch mapping " >> docker.txt 
   66  cat docker.txt 
   67  git add docker.txt
   68  git commit -m "updating docker in abc branch" docker.txt 
   69  git status
   70  clear
   71  git status
   72  git branch -a
   73  git --help
   74  clear
   75  git push --help
   76  git status
   77  git branch -a
   78  git push -u --set-upstream origin pqr
   79  git push https://gitlab.com/MARS_Sunitha/demoprj.git <abc>:<pqr>
   80  git push https://gitlab.com/MARS_Sunitha/demoprj.git abc:pqr
   81  history
   82  history > commands_issued.txt
   83  cat commands_issued.txt 
   84  clear
   85  git add commands_issued.txt
   86  git status
   87  git commit -m "commands issued in git bash prompt saved as text file" commands_issued.txt 
   88  git checkout master
   89  git branch -a
   90  git push origin
   91  ls -l
   92  cd ..
   93  ls 
   94  cd git-demo/
   95  ls
   96  ls
   97  clear
   98  git branch -a
   99  history
  100  history > commands_issued.txt
  101  ls
  102  git add commands_issued.txt
  103  git status
  104  git commit -m "all commands issued stored in a file" commands_issued.txt
  105  git status
  106  git push
  107  echo "dummy text" > d1.txt
  108  git add d1.txt 
  109  git commit -m "d1 file" d1.txt 
  110  git push origin
  111  clear
  112  git status
  113  ls
  114  git pull
  115  git branch -a
  116  ls
  117  cat docker.txt 
  118  cat .git/config
  119  clear
  120  pwd
  121  ls
  122  cat linux.txt 
  123  echo "Junk data added to linux.txt" >> linux.txt 
  124  cat linux.txt 
  125  git restore linux.txt 
  126  echo "The junk data content of the linux.txt file has been removed by git restore"
  127  cat linux.txt 
  128  echo " New junk data again added to linux.txt file.. also we use git add to move it to staging area" >> linux.txt 
  129  git add linux.txt 
  130  cat linux.txt 
  131  echo "now we try to restore the staged file back to working area"
  132  git restore --staged linux.txt 
  133  git status
  134  clear
  135  cat linux.txt 
  136  echo "removing the contents also away from linux.txt"
  137  git restore linux.txt
  138  cat linux.txt 
  139  git status
  140  cat .git/config
  141  git checkout feature/f1
  142  cat .git/config
  143  clear
  144  ls
  145  rm d1.txt
  146  ls
  147  git status
  148  git add/rm d1.txt
  149  git rm d1.txt
  150  git status 
  151  git commit -m "removed d1 file entirrely from being tracked as part of repository"
  152  ls
  153  git status
  154  git push
  155  clear
  156  ls
  157  cat docker.txt 
  158  echo "First change in feature/f1 branch docker.txt" >> docker.txt 
  159  git add docker.txt 
  160  git commit - m "changed docker.txt in feature/f1" docker.txt 
  161  git commit -m "changed docker.txt in feature/f1" docker.txt 
  162  git checkout develop
  163  git checkout development
  164  ls
  165  cat docker.txt
  166  echo "new line add to docker.txt in development branch" >> docker.txt
  167  git add docker.txt 
  168  git commit -m "updated docker.txt in development branch" docker.txt 
  169  clear
  170  git merge feature/f1
  171  cat docker.txt 
  172  vi docker.txt 
  173  git commit -m "manually updated docker.txt conflict" docker.txt 
  174  git checkout feature/f1
  175  ls
  176  git merge docker.txt
  177  git status
  178  git rm d1.txt 
  179  git commit -m "deleted d1.txt" d1.txt
  180  git status
  181  git commit -m "updated"
  182  git add docker.txt
  183  git commit -m "updated"
  184  git status
  185  clear
  186  ls -l | more
  187  ls -l | pg
  188  clear
  189  git rebase -- help
  190  git --help
  191  git rebase
  192  clear
  193  git -rebase 
  194  branch -a
  195  git branch -a
  196  ls
  197  cat d1.txt 
  198  git checkout master
  199  git checkout Development
  200  git rebase
  201  git rebase --abort
  202  git checkout master
  203  ls
  204  cat d1.txt 
  205  git checkout Development
  206  ls
  207  git checkout Feature/f1
  208  ls
  209  git checkout feature/f2
  210  ls
  211  cat d1.txt 
  212  git rebase
  213  git rebase feature/f1
  214  git rebase --abort
  215  ls
  216  git rm d1.txt
  217  git commit -m "removed d1.txt from feature/f2" d1.txt
  218  git rebase
  219  git checkout
  220  git checkout master
  221  git rebase
  222  ls
  223  git push
  224  ls
  225  git checkout development
  226  ls
  227  git push
  228  ls
  229  git checkout feature/f2
  230  ls
  231  git push
  232  ls
  233  git checkout master
  234  ls
  235  git rm d1.txt
  236  git commit -m "removed the d1.txt entirely .. wiped it out" d1.txt
  237  git push
  238  ls
  239  git checkout release/1.0
  240  ls
  241  git checkout master
  242  ls
  243  git pull
  244  ls
  245  git log
  246  pwd
  247  cd d:/Sonu/MARS_Training/
  248  ls
  249  cd Gitlabs
  250  ls
  251  cd ..
  252  cd All_Code_Files/
  253  ls
  254  cd git-demo/
  255  ls
  256  git checkout testbranch
  257  git pull
  258  clear
  259  git checkout testbranch
  260  ls
  261  vi testfile.txt 
  262  git add testfile.txt 
  263  git commit -m "changed testfile.txt" testfile.txt 
  264  git merge master
  265  cat testfile.txt 
  266  git merge master
  267  git commit -m "testfile changed"
  268  git merge master
  269  git checkout master
  270  cat testfile.txt 
  271  git checkout testbranch 
  272  cat testfile.txt 
  273  git checkout master
  274  git merge testbranch
  275  cat testfile.txt 
  276  clear
  277  ls
  278  history
  279  history >> commands_issued.txt 
